…
The result is 118,269 rows. The reason is that the `text`-column is replaced by a new column named `word`. This columns contains all words found in all of the articles. The information from the remaining columns are kept. This makes is possible to dermine which article each word belongs to.

::::::

## Stopwords
The next step is to remove stopwords. We have chosen to use the stopword list from the package `tidytext`. The list contains 1,149 words that are considered stopwords. Other lists are available, and they differ in terms of how many words they contain.


``` r
data(stop_words)
stop_words
```

``` output
# A tibble: 1,149 × 2
   word        lexicon
   <chr>       <chr>  
 1 a           SMART  
 2 a's         SMART  
 3 able        SMART  
 4 about       SMART  
 5 above       SMART  
 6 according   SMART  
 7 accordingly SMART  
 8 across      SMART  
 9 actually    SMART  
10 after       SMART  
# ℹ 1,139 more rows
```
…
