Ny udgave af text mining på engelsk: Tidytext, stopwords, and sentiment analysis
…
Stopwords

The next step is to remove stopwords. We have chosen to use the
stopword list from the package tidytext. The list contains
1,149 words that are considered stopwords. Other lists are available,
and they differ in terms of how many words they contain.

R

data(stop_words)
stop_words

OUTPUT

# A tibble: 1,149 × 2
   word        lexicon
   <chr>       <chr>
 1 a           SMART
 2 a's         SMART
 3 able        SMART
 4 about       SMART
 5 above       SMART
 6 according   SMART
 7 accordingly SMART
 8 across      SMART
 9 actually    SMART
10 after       SMART
# ℹ 1,139 more rows
…
Frequency analysis

A word frequency is a relatively simple analysis. It meassures how
often words occur in a text.

R

articles_anti_join %>% 
  count(word, sort = TRUE)

OUTPUT

# A tibble: 12,328 × 2
   word             n
   <chr>        <int>
 1 obama          513
 2 trump          479
 3 president      450
 4 people         337
 5 inauguration   249
 6 america        237
 7 world          212
 8 american       201
 9 time           189
10 day            188
# ℹ 12,318 more rows
…
R

articles_filtered <- articles_anti_join %>%
  filter(!word %in% c("trump", "trump’s", "obama", "obama's", "inauguration", "president"))

articles_filtered %>% 
  count(word, sort = TRUE)

OUTPUT

# A tibble: 12,322 × 2
   word           n
   <chr>      <int>
 1 people       337
 2 america      237
 3 world        212
 4 american     201
 5 time         189
 6 day          188
 7 bush         186
 8 speech       183
 9 white        180
10 washington   150
# ℹ 12,312 more rows

The words deemed irrelevant are no longer on the list above.

Instead of a general list it may be more interesting to focus on the
most frequent words belonging to articles about the two presidents
respectively.

R

articles_filtered %>%
  count(president, word, sort = TRUE)

OUTPUT

# A tibble: 15,989 × 3
   president word         n
   <chr>     <chr>    <int>
 1 obama     bush       174
 2 obama     people     170
 3 trump     people     167
 4 obama     america    123
 5 obama     speech     121
 6 obama     world      120
 7 obama     time       119
 8 obama     american   116
 9 trump     america    114
10 trump     it’s       108
# ℹ 15,979 more rows
…
R

articles_filtered %>%
  count(president, word, sort = TRUE) %>% 
  pivot_wider(
    names_from = president,
    values_from = n
  )

OUTPUT

# A tibble: 12,322 × 3
   word     obama trump
   <chr>    <int> <int>
 1 bush       174    12
 2 people     170   167
 3 america    123   114
 4 speech     121    62
 5 world      120    92
 6 time       119    70
 7 american   116    85
 8 it’s        NA   108
 9 day        106    82
10 donald       1   106
# ℹ 12,312 more rows
…
