…
A machine does not have the same abilities, so instead of having it read the text, we look at the combined words of the text and look at the sentiment of each word and the sentiment of the text/paragraph would be the sum of the sentiments of the words.

In the previous section we had a list of words in the text without stopwords. To do a sentiment analysis we can use a so-called lexicon and assign a sentiment to each word. In order to do this we need an list of words and their sentiment. A simple form would be wether they are positive or negative.

There are multiple sentiment lexicons. For a start we will be using the `bing` lexicon. This lexicon categorises words as either positive or negative.



``` r
get_sentiments("bing")
```

``` output
# A tibble: 6,786 × 2
   word        sentiment
   <chr>       <chr>    
 1 2-faces     negative 
 2 abnormal    negative 
 3 abolish     negative 
 4 abominable  negative 
 5 abominably  negative 
 6 abominate   negative 
 7 abomination negative 
 8 abort       negative 
 9 aborted     negative 
10 aborts      negative 
# ℹ 6,776 more rows
```
…
``` output
Joining with `by = join_by(word)`
```

``` warning
Warning in inner_join(., bing): Detected an unexpected many-to-many relationship between `x` and `y`.
ℹ Row 48882 of `x` matches multiple rows in `y`.
ℹ Row 2233 of `y` matches multiple rows in `x`.
ℹ If a many-to-many relationship is expected, set `relationship =
  "many-to-many"` to silence this warning.
```

``` output
# A tibble: 6,159 × 6
      id president web_publication_date pillar_name word          sentiment
   <dbl> <chr>     <dttm>               <chr>       <chr>         <chr>    
 1     1 obama     2009-01-20 19:16:38  News        promises      positive 
 2     1 obama     2009-01-20 19:16:38  News        promise       positive 
 3     1 obama     2009-01-20 19:16:38  News        dust          negative 
 4     1 obama     2009-01-20 19:16:38  News        cold          negative 
 5     1 obama     2009-01-20 19:16:38  News        dawn          positive 
 6     1 obama     2009-01-20 19:16:38  News        celebrate     positive 
 7     1 obama     2009-01-20 19:16:38  News        inspirational positive 
 8     1 obama     2009-01-20 19:16:38  News        failed        negative 
 9     1 obama     2009-01-20 19:16:38  News        resound       positive 
10     1 obama     2009-01-20 19:16:38  News        attacks       negative 
# ℹ 6,149 more rows
```
…
