Ny udgave af text mining på engelsk: Sentiment analysis
…
There are multiple sentiment lexicons. For a start we will be using
the bing lexicon. This lexicon categorises words as either
positive or negative.

R

get_sentiments("bing")

OUTPUT

# A tibble: 6,786 × 2
   word        sentiment
   <chr>       <chr>
 1 2-faces     negative
 2 abnormal    negative
 3 abolish     negative
 4 abominable  negative
 5 abominably  negative
 6 abominate   negative
 7 abomination negative
 8 abort       negative
 9 aborted     negative
10 aborts      negative
# ℹ 6,776 more rows
…
articles_bing <- articles_filtered %>% 
  inner_join(bing)

OUTPUT

Joining with `by = join_by(word)`

R

articles_bing

OUTPUT

# A tibble: 6,159 × 6
      id president web_publication_date pillar_name word          sentiment
   <dbl> <chr>     <dttm>               <chr>       <chr>         <chr>
 1     1 obama     2009-01-20 19:16:38  News        promises      positive
 2     1 obama     2009-01-20 19:16:38  News        promise       positive
 3     1 obama     2009-01-20 19:16:38  News        dust          negative
 4     1 obama     2009-01-20 19:16:38  News        cold          negative
 5     1 obama     2009-01-20 19:16:38  News        dawn          positive
 6     1 obama     2009-01-20 19:16:38  News        celebrate     positive
 7     1 obama     2009-01-20 19:16:38  News        inspirational positive
 8     1 obama     2009-01-20 19:16:38  News        failed        negative
 9     1 obama     2009-01-20 19:16:38  News        resound       positive
10     1 obama     2009-01-20 19:16:38  News        attacks       negative
# ℹ 6,149 more rows
…
